n=14, p=4: 0 1 2 | 3 4 5 6 | 7 8 9 | 10 11 12 13
n=14, p=5: 0 1 | 2 3 4 | 5 6 7 | 8 9 10 | 11 12 13
n=2, p=5:  0 | | | 1 |
n=3, p=5: 0 | | | 1 | 2
n=1, p=4: 0 | | |
n=10, p=4: 0 1 | 2 3 4 | 5 6 | 7 8 9
